…
  non_zero <- non_zero %>%
    map(filter, beta != 0) %>%
    map(rownames_to_column, 'gene_symbol') %>%
    map(arrange, -beta) %>%
    map(as_tibble) %>%
    set_names(colnames(train_coefficients))

```
For cis-platin, 43 non-zero model coefficients are: 

```r
> non_zero$Cisplatin_1005
# A tibble: 43 × 2
   gene_symbol   beta
   <chr>        <dbl>
 1 IL17RC      0.341 
 2 TOLLIP      0.208 
 3 HM13        0.192 
 4 PPME1       0.143 
 5 PTTG1IP     0.140 
 6 TM2D2       0.134 
 7 PPP2R2C     0.123 
 8 WTIP        0.118 
 9 UBTD1       0.0847
10 ABHD2       0.0714
# … with 33 more rows
# ℹ Use `print(n = ...)` to see more rows
…
  test_plot_data <- test_plot_data %>%
    pivot_longer(cols = all_of(best_models),
                 names_to = 'compound',
                 values_to = 'ic50')

```
```r

> test_plot_data

# A tibble: 1,260 × 3
   sample_id compound             ic50
   <chr>     <chr>               <dbl>
 1 C3L-02899 Camptothecin_1003  0.0611
 2 C3L-02899 Vinblastine_1004   0.0400
 3 C3L-02899 Cisplatin_1005    22.3   
 4 C3L-02899 Cytarabine_1006    2.98  
 5 C3L-02899 Gefitinib_1010    23.8   
 6 C3L-02899 Navitoclax_1011    7.73  
 7 C3L-02899 Vorinostat_1012    7.12  
 8 C3L-02899 Nilotinib_1013    34.2   
 9 C3L-02899 Olaparib_1017     49.4   
10 C3N-02585 Camptothecin_1003  0.107 
# … with 1,250 more rows
# ℹ Use `print(n = ...)` to see more rows
…
